…
> july <- read_csv("~/Downloads/202207-divvy-tripdata.csv", show_col_types=FALSE)
                                                                                                                                                                                                                                                        
> august <- read_csv("~/Downloads/202208-divvy-tripdata.csv", show_col_types=FALSE)
                                                                                                                                                                                                                                                        
> september <- read_csv("~/Downloads/202209-divvy-publictripdata.csv", show_col_types=FALSE)
                                                                                                                                                                                                                                                        
> october <- read_csv("~/Downloads/202210-divvy-tripdata.csv", show_col_types=FALSE)
                                                                                                                                                                                                                                                        
> november <- read_csv("~/Downloads/202211-divvy-tripdata.csv", show_col_types=FALSE)
                                                                                                                                                                                                                                                        
> december <- read_csv("~/Downloads/202212-divvy-tripdata.csv", show_col_types=FALSE)
                                                                                                                                                                                                                                                        
> january
# A tibble: 103,770 × 13
   ride_id          rideable_type started_at          ended_at            start_station_name            start_station_id end_station_name            end_station_id start_lat start_lng end_lat end_lng member_casual
   <chr>            <chr>         <dttm>              <dttm>              <chr>                         <chr>            <chr>                       <chr>              <dbl>     <dbl>   <dbl>   <dbl> <chr>        
 1 C2F7DD78E82EC875 electric_bike 2022-01-13 11:59:47 2022-01-13 12:02:44 Glenwood Ave & Touhy Ave      525              Clark St & Touhy Ave        RP-007              42.0     -87.7    42.0   -87.7 casual       
 2 A6CF8980A652D272 electric_bike 2022-01-10 08:41:56 2022-01-10 08:46:17 Glenwood Ave & Touhy Ave      525              Clark St & Touhy Ave        RP-007              42.0     -87.7    42.0   -87.7 casual       
 3 BD0F91DFF741C66D classic_bike  2022-01-25 04:53:40 2022-01-25 04:58:01 Sheffield Ave & Fullerton Ave TA1306000016     Greenview Ave & Fullerton … TA1307000001        41.9     -87.7    41.9   -87.7 member       
 4 CBB80ED419105406 classic_bike  2022-01-04 00:18:04 2022-01-04 00:33:00 Clark St & Bryn Mawr Ave      KA1504000151     Paulina St & Montrose Ave   TA1309000021        42.0     -87.7    42.0   -87.7 casual       
 5 DDC963BFDDA51EEA classic_bike  2022-01-20 01:31:10 2022-01-20 01:37:12 Michigan Ave & Jackson Blvd   TA1309000002     State St & Randolph St      TA1305000029        41.9     -87.6    41.9   -87.6 member       
 6 A39C6F6CC0586C0B classic_bike  2022-01-11 18:48:09 2022-01-11 18:51:31 Wood St & Chicago Ave         637              Honore St & Division St     TA1305000034        41.9     -87.7    41.9   -87.7 member       
 7 BDC4AB637EDF981B classic_bike  2022-01-30 18:32:52 2022-01-30 18:49:26 Oakley Ave & Irving Park Rd   KA1504000158     Broadway & Sheridan Rd      13323               42.0     -87.7    42.0   -87.6 member       
 8 81751A3186E59A6B classic_bike  2022-01-22 12:20:02 2022-01-22 12:32:06 Sheffield Ave & Fullerton Ave TA1306000016     Damen Ave & Clybourn Ave    13271               41.9     -87.7    41.9   -87.7 member       
 9 154222B86A338ABD electric_bike 2022-01-17 07:34:41 2022-01-17 08:00:08 Racine Ave & 15th St          13304            Clinton St & Washington Bl… WL-012              41.9     -87.7    41.9   -87.6 member       
10 72DC25B2DD467EEF classic_bike  2022-01-28 15:27:53 2022-01-28 15:35:16 LaSalle St & Jackson Blvd     TA1309000004     Clinton St & Washington Bl… WL-012              41.9     -87.6    41.9   -87.6 member       
# ℹ 103,760 more rows
# ℹ Use `print(n = ...)` to see more rows
…
  ..   started_at = col_datetime(format = ""),
  ..   ended_at = col_datetime(format = ""),
  ..   start_station_name = col_character(),
  ..   start_station_id = col_character(),
  ..   end_station_name = col_character(),
  ..   end_station_id = col_character(),
  ..   start_lat = col_double(),
  ..   start_lng = col_double(),
  ..   end_lat = col_double(),
  ..   end_lng = col_double(),
  ..   member_casual = col_character()
  .. )
 - attr(*, "problems")=<externalptr> 
> june
# A tibble: 769,204 × 13
   ride_id          rideable_type started_at          ended_at            start_station_name start_station_id end_station_name end_station_id start_lat start_lng end_lat end_lng member_casual
   <chr>            <chr>         <dttm>              <dttm>              <chr>              <chr>            <chr>            <chr>              <dbl>     <dbl>   <dbl>   <dbl> <chr>        
 1 600CFD130D0FD2A4 electric_bike 2022-06-30 17:27:53 2022-06-30 17:35:15 <NA>               <NA>             <NA>             <NA>                41.9     -87.6    41.9   -87.6 casual       
 2 F5E6B5C1682C6464 electric_bike 2022-06-30 18:39:52 2022-06-30 18:47:28 <NA>               <NA>             <NA>             <NA>                41.9     -87.6    41.9   -87.6 casual       
 3 B6EB6D27BAD771D2 electric_bike 2022-06-30 11:49:25 2022-06-30 12:02:54 <NA>               <NA>             <NA>             <NA>                41.9     -87.6    41.9   -87.6 casual       
 4 C9C320375DE1D5C6 electric_bike 2022-06-30 11:15:25 2022-06-30 11:19:43 <NA>               <NA>             <NA>             <NA>                41.8     -87.7    41.8   -87.6 casual       
 5 56C055851023BE98 electric_bike 2022-06-29 23:36:50 2022-06-29 23:45:17 <NA>               <NA>             <NA>             <NA>                41.9     -87.6    41.9   -87.6 casual       
 6 B664188E8163D045 electric_bike 2022-06-30 16:42:10 2022-06-30 16:58:22 <NA>               <NA>             <NA>             <NA>                42.0     -87.7    42.1   -87.7 casual       
 7 338C05A3E90D619B electric_bike 2022-06-30 18:39:07 2022-06-30 19:05:02 <NA>               <NA>             <NA>             <NA>                41.9     -87.6    41.9   -87.7 casual       
 8 C037F5F4107788DE electric_bike 2022-06-30 12:46:14 2022-06-30 14:12:48 <NA>               <NA>             <NA>             <NA>                41.9     -87.6    42.0   -87.7 casual       
 9 C19B08D794D1C89E electric_bike 2022-06-30 11:09:38 2022-06-30 11:10:25 <NA>               <NA>             <NA>             <NA>                41.9     -87.6    41.9   -87.6 casual       
10 6E9E3A041C14E960 electric_bike 2022-06-30 11:05:46 2022-06-30 11:09:11 <NA>               <NA>             <NA>             <NA>                41.9     -87.6    41.9   -87.6 casual       
# ℹ 769,194 more rows
# ℹ Use `print(n = ...)` to see more rows
…
   start_lng         end_lat         end_lng       member_casual     
 Min.   :-87.84   Min.   : 0.00   Min.   :-88.14   Length:5667717    
 1st Qu.:-87.66   1st Qu.:41.88   1st Qu.:-87.66   Class :character  
 Median :-87.64   Median :41.90   Median :-87.64   Mode  :character  
 Mean   :-87.65   Mean   :41.90   Mean   :-87.65                     
 3rd Qu.:-87.63   3rd Qu.:41.93   3rd Qu.:-87.63                     
 Max.   :-73.80   Max.   :42.37   Max.   :  0.00                     
                  NA's   :5858    NA's   :5858                       
> bike_share_22v1 <- year2022 %>%
+ select(ride_id, rideable_type, started_at, ended_at, start_station_name, start_station_id, end_station_name, end_station_id, member_casual)
> bike_share_22v1
# A tibble: 5,667,717 × 9
   ride_id          rideable_type started_at          ended_at            start_station_name            start_station_id end_station_name              end_station_id member_casual
   <chr>            <chr>         <dttm>              <dttm>              <chr>                         <chr>            <chr>                         <chr>          <chr>        
 1 C2F7DD78E82EC875 electric_bike 2022-01-13 11:59:47 2022-01-13 12:02:44 Glenwood Ave & Touhy Ave      525              Clark St & Touhy Ave          RP-007         casual       
 2 A6CF8980A652D272 electric_bike 2022-01-10 08:41:56 2022-01-10 08:46:17 Glenwood Ave & Touhy Ave      525              Clark St & Touhy Ave          RP-007         casual       
 3 BD0F91DFF741C66D classic_bike  2022-01-25 04:53:40 2022-01-25 04:58:01 Sheffield Ave & Fullerton Ave TA1306000016     Greenview Ave & Fullerton Ave TA1307000001   member       
 4 CBB80ED419105406 classic_bike  2022-01-04 00:18:04 2022-01-04 00:33:00 Clark St & Bryn Mawr Ave      KA1504000151     Paulina St & Montrose Ave     TA1309000021   casual       
 5 DDC963BFDDA51EEA classic_bike  2022-01-20 01:31:10 2022-01-20 01:37:12 Michigan Ave & Jackson Blvd   TA1309000002     State St & Randolph St        TA1305000029   member       
 6 A39C6F6CC0586C0B classic_bike  2022-01-11 18:48:09 2022-01-11 18:51:31 Wood St & Chicago Ave         637              Honore St & Division St       TA1305000034   member       
 7 BDC4AB637EDF981B classic_bike  2022-01-30 18:32:52 2022-01-30 18:49:26 Oakley Ave & Irving Park Rd   KA1504000158     Broadway & Sheridan Rd        13323          member       
 8 81751A3186E59A6B classic_bike  2022-01-22 12:20:02 2022-01-22 12:32:06 Sheffield Ave & Fullerton Ave TA1306000016     Damen Ave & Clybourn Ave      13271          member       
 9 154222B86A338ABD electric_bike 2022-01-17 07:34:41 2022-01-17 08:00:08 Racine Ave & 15th St          13304            Clinton St & Washington Blvd  WL-012         member       
10 72DC25B2DD467EEF classic_bike  2022-01-28 15:27:53 2022-01-28 15:35:16 LaSalle St & Jackson Blvd     TA1309000004     Clinton St & Washington Blvd  WL-012         member       
# ℹ 5,667,707 more rows
# ℹ Use `print(n = ...)` to see more rows
> bike_share_22v1$ride_length <- interval(bike_share_22v1$started_at, bike_share_22v1$ended_at)/minutes()

b
> 
> bike_share_22v1
# A tibble: 5,667,717 × 10
   ride_id          rideable_type started_at          ended_at            start_station_name            start_station_id end_station_name              end_station_id member_casual ride_length
   <chr>            <chr>         <dttm>              <dttm>              <chr>                         <chr>            <chr>                         <chr>          <chr>               <dbl>
 1 C2F7DD78E82EC875 electric_bike 2022-01-13 11:59:47 2022-01-13 12:02:44 Glenwood Ave & Touhy Ave      525              Clark St & Touhy Ave          RP-007         casual               2.95
 2 A6CF8980A652D272 electric_bike 2022-01-10 08:41:56 2022-01-10 08:46:17 Glenwood Ave & Touhy Ave      525              Clark St & Touhy Ave          RP-007         casual               4.35
 3 BD0F91DFF741C66D classic_bike  2022-01-25 04:53:40 2022-01-25 04:58:01 Sheffield Ave & Fullerton Ave TA1306000016     Greenview Ave & Fullerton Ave TA1307000001   member               4.35
 4 CBB80ED419105406 classic_bike  2022-01-04 00:18:04 2022-01-04 00:33:00 Clark St & Bryn Mawr Ave      KA1504000151     Paulina St & Montrose Ave     TA1309000021   casual              14.9 
 5 DDC963BFDDA51EEA classic_bike  2022-01-20 01:31:10 2022-01-20 01:37:12 Michigan Ave & Jackson Blvd   TA1309000002     State St & Randolph St        TA1305000029   member               6.03
 6 A39C6F6CC0586C0B classic_bike  2022-01-11 18:48:09 2022-01-11 18:51:31 Wood St & Chicago Ave         637              Honore St & Division St       TA1305000034   member               3.37
 7 BDC4AB637EDF981B classic_bike  2022-01-30 18:32:52 2022-01-30 18:49:26 Oakley Ave & Irving Park Rd   KA1504000158     Broadway & Sheridan Rd        13323          member              16.6 
 8 81751A3186E59A6B classic_bike  2022-01-22 12:20:02 2022-01-22 12:32:06 Sheffield Ave & Fullerton Ave TA1306000016     Damen Ave & Clybourn Ave      13271          member              12.1 
 9 154222B86A338ABD electric_bike 2022-01-17 07:34:41 2022-01-17 08:00:08 Racine Ave & 15th St          13304            Clinton St & Washington Blvd  WL-012         member              25.4 
10 72DC25B2DD467EEF classic_bike  2022-01-28 15:27:53 2022-01-28 15:35:16 LaSalle St & Jackson Blvd     TA1309000004     Clinton St & Washington Blvd  WL-012         member               7.38
# ℹ 5,667,707 more rows
# ℹ Use `print(n = ...)` to see more rows
> bike_share_22v1$days_of_the_week <- (wday(bike_share_22v1$started_at, label=TRUE, abbr=FALSE))
> bike_share_22v1
# A tibble: 5,667,717 × 11
   ride_id          rideable_type started_at          ended_at            start_station_name            start_station_id end_station_name              end_station_id member_casual ride_length days_of_the_week
   <chr>            <chr>         <dttm>              <dttm>              <chr>                         <chr>            <chr>                         <chr>          <chr>               <dbl> <ord>           
 1 C2F7DD78E82EC875 electric_bike 2022-01-13 11:59:47 2022-01-13 12:02:44 Glenwood Ave & Touhy Ave      525              Clark St & Touhy Ave          RP-007         casual               2.95 Thursday        
 2 A6CF8980A652D272 electric_bike 2022-01-10 08:41:56 2022-01-10 08:46:17 Glenwood Ave & Touhy Ave      525              Clark St & Touhy Ave          RP-007         casual               4.35 Monday          
 3 BD0F91DFF741C66D classic_bike  2022-01-25 04:53:40 2022-01-25 04:58:01 Sheffield Ave & Fullerton Ave TA1306000016     Greenview Ave & Fullerton Ave TA1307000001   member               4.35 Tuesday         
 4 CBB80ED419105406 classic_bike  2022-01-04 00:18:04 2022-01-04 00:33:00 Clark St & Bryn Mawr Ave      KA1504000151     Paulina St & Montrose Ave     TA1309000021   casual              14.9  Tuesday         
 5 DDC963BFDDA51EEA classic_bike  2022-01-20 01:31:10 2022-01-20 01:37:12 Michigan Ave & Jackson Blvd   TA1309000002     State St & Randolph St        TA1305000029   member               6.03 Thursday        
 6 A39C6F6CC0586C0B classic_bike  2022-01-11 18:48:09 2022-01-11 18:51:31 Wood St & Chicago Ave         637              Honore St & Division St       TA1305000034   member               3.37 Tuesday         
 7 BDC4AB637EDF981B classic_bike  2022-01-30 18:32:52 2022-01-30 18:49:26 Oakley Ave & Irving Park Rd   KA1504000158     Broadway & Sheridan Rd        13323          member              16.6  Sunday          
 8 81751A3186E59A6B classic_bike  2022-01-22 12:20:02 2022-01-22 12:32:06 Sheffield Ave & Fullerton Ave TA1306000016     Damen Ave & Clybourn Ave      13271          member              12.1  Saturday        
 9 154222B86A338ABD electric_bike 2022-01-17 07:34:41 2022-01-17 08:00:08 Racine Ave & 15th St          13304            Clinton St & Washington Blvd  WL-012         member              25.4  Monday          
10 72DC25B2DD467EEF classic_bike  2022-01-28 15:27:53 2022-01-28 15:35:16 LaSalle St & Jackson Blvd     TA1309000004     Clinton St & Washington Blvd  WL-012         member               7.38 Friday          
# ℹ 5,667,707 more rows
# ℹ Use `print(n = ...)` to see more rows
> bike_share_22v1$month_of_the_year <- (month(bike_share_22v1$started_at, label=TRUE, abbr=FALSE))
> head(bike_share_22v1)
# A tibble: 6 × 12
  ride_id          rideable_type started_at          ended_at            start_station_name            start_station_id end_station_name  end_station_id member_casual ride_length days_of_the_week month_of_the_year
  <chr>            <chr>         <dttm>              <dttm>              <chr>                         <chr>            <chr>             <chr>          <chr>               <dbl> <ord>            <ord>            
1 C2F7DD78E82EC875 electric_bike 2022-01-13 11:59:47 2022-01-13 12:02:44 Glenwood Ave & Touhy Ave      525              Clark St & Touhy… RP-007         casual               2.95 Thursday         January          
2 A6CF8980A652D272 electric_bike 2022-01-10 08:41:56 2022-01-10 08:46:17 Glenwood Ave & Touhy Ave      525              Clark St & Touhy… RP-007         casual               4.35 Monday           January          
3 BD0F91DFF741C66D classic_bike  2022-01-25 04:53:40 2022-01-25 04:58:01 Sheffield Ave & Fullerton Ave TA1306000016     Greenview Ave & … TA1307000001   member               4.35 Tuesday          January          
4 CBB80ED419105406 classic_bike  2022-01-04 00:18:04 2022-01-04 00:33:00 Clark St & Bryn Mawr Ave      KA1504000151     Paulina St & Mon… TA1309000021   casual              14.9  Tuesday          January          
5 DDC963BFDDA51EEA classic_bike  2022-01-20 01:31:10 2022-01-20 01:37:12 Michigan Ave & Jackson Blvd   TA1309000002     State St & Rando… TA1305000029   member               6.03 Thursday         January          
6 A39C6F6CC0586C0B classic_bike  2022-01-11 18:48:09 2022-01-11 18:51:31 Wood St & Chicago Ave         637              Honore St & Divi… TA1305000034   member               3.37 Tuesday          January          
> bike_share_22v1 %>%
+ select(started_at, ended_at,ride_length) %>%
+ arrange(ride_length)
# A tibble: 5,667,717 × 3
   started_at          ended_at            ride_length
   <dttm>              <dttm>                    <dbl>
 1 2022-09-28 11:04:32 2022-09-21 06:31:11     -10353.
 2 2022-10-13 14:42:10 2022-10-13 11:53:28       -169.
 3 2022-06-07 19:23:03 2022-06-07 17:05:38       -137.
 4 2022-06-07 19:15:39 2022-06-07 17:05:37       -130.
 5 2022-06-07 19:14:47 2022-06-07 17:05:42       -129.
 6 2022-06-07 19:14:46 2022-06-07 17:07:45       -127.
 7 2022-06-07 19:11:33 2022-06-07 17:05:24       -126.
 8 2022-06-07 19:13:27 2022-06-07 17:07:57       -126.
 9 2022-06-07 19:06:49 2022-06-07 17:09:43       -117.
10 2022-06-07 18:47:01 2022-06-07 17:05:41       -101.
# ℹ 5,667,707 more rows
# ℹ Use `print(n = ...)` to see more rows
…
